\relax 
\providecommand\hyper@newdestlabel[2]{}
\providecommand\HyperFirstAtBeginDocument{\AtBeginDocument}
\HyperFirstAtBeginDocument{\ifx\hyper@anchor\@undefined
\global\let\oldcontentsline\contentsline
\gdef\contentsline#1#2#3#4{\oldcontentsline{#1}{#2}{#3}}
\global\let\oldnewlabel\newlabel
\gdef\newlabel#1#2{\newlabelxx{#1}#2}
\gdef\newlabelxx#1#2#3#4#5#6{\oldnewlabel{#1}{{#2}{#3}}}
\AtEndDocument{\ifx\hyper@anchor\@undefined
\let\contentsline\oldcontentsline
\let\newlabel\oldnewlabel
\fi}
\fi}
\global\let\hyper@last\relax 
\gdef\HyperFirstAtBeginDocument#1{#1}
\providecommand\HyField@AuxAddToFields[1]{}
\providecommand\HyField@AuxAddToCoFields[2]{}
\@writefile{toc}{\contentsline {subsection}{\numberline {Problem 1}[6 marks]}{1}{subsection.0.1}}
\@writefile{toc}{\contentsline {subsection}{\numberline {Problem 2}[3+3+3+5=14 marks]}{1}{subsection.0.2}}
\@writefile{toc}{\contentsline {subsection}{\numberline {Problem 3}[4+4=8 marks]}{2}{subsection.0.3}}
\@writefile{toc}{\contentsline {subsection}{\numberline {Problem 4}[5+6+4+4+5+(4)+(4)=24 marks]}{2}{subsection.0.4}}
\@writefile{lof}{\contentsline {figure}{\numberline {1}{\ignorespaces The LBSL produced after inserting elements (5, 17, 9, 12, 3, 1, 15, 41, 23, 4, 37).}}{3}{figure.1}}
\newlabel{fig:example}{{1}{3}{The LBSL produced after inserting elements (5, 17, 9, 12, 3, 1, 15, 41, 23, 4, 37)}{figure.1}{}}
\@writefile{lof}{\contentsline {figure}{\numberline {2}{\ignorespaces The LBSL produced after inserting elements (5, 17, 9, 12, 3, 1, 15, 41, 23, 4, 37).}}{4}{figure.2}}
\newlabel{fig:example}{{2}{4}{The LBSL produced after inserting elements (5, 17, 9, 12, 3, 1, 15, 41, 23, 4, 37)}{figure.2}{}}
