\relax 
\providecommand\hyper@newdestlabel[2]{}
\providecommand\HyperFirstAtBeginDocument{\AtBeginDocument}
\HyperFirstAtBeginDocument{\ifx\hyper@anchor\@undefined
\global\let\oldcontentsline\contentsline
\gdef\contentsline#1#2#3#4{\oldcontentsline{#1}{#2}{#3}}
\global\let\oldnewlabel\newlabel
\gdef\newlabel#1#2{\newlabelxx{#1}#2}
\gdef\newlabelxx#1#2#3#4#5#6{\oldnewlabel{#1}{{#2}{#3}}}
\AtEndDocument{\ifx\hyper@anchor\@undefined
\let\contentsline\oldcontentsline
\let\newlabel\oldnewlabel
\fi}
\fi}
\global\let\hyper@last\relax 
\gdef\HyperFirstAtBeginDocument#1{#1}
\providecommand\HyField@AuxAddToFields[1]{}
\providecommand\HyField@AuxAddToCoFields[2]{}
\@writefile{toc}{\contentsline {subsection}{\numberline {Problem 1}Quadtrees [6+6+8=20 marks]}{1}{subsection.0.1}}
\@writefile{toc}{\contentsline {subsection}{\numberline {Problem 2}kd-Trees [6+6=12 marks]}{2}{subsection.0.2}}
\@writefile{toc}{\contentsline {subsection}{\numberline {Problem 3}Range Trees [6+6=12 marks]}{3}{subsection.0.3}}
\@writefile{toc}{\contentsline {subsection}{\numberline {Problem 4}Pattern Matching KMP [8+6+4=18 marks]}{4}{subsection.0.4}}
\@writefile{toc}{\contentsline {subsection}{\numberline {Problem 5}Programming [12+6=18 marks]}{8}{subsection.0.5}}
